first line added
<<<<<<< HEAD
line added in branch try1
=======
another text added in master branh after creating try1
<<<<<<< HEAD
Added In main
=======
>>>>>>> master
>>>>>>> origin/try1
=====ADDED text in try2